Model Comparison with Microbiome High-Throughput Sequencing Data
…
The phenotype information can be accessed with the phenoData and pData methods:

phenoData(msd16s)

An object of class 'AnnotatedDataFrame'
  sampleNames: 100259 100262 ... 602385 (992 total)
  varLabels: Type Country ... Dysentery (5 total)
  varMetadata: labelDescription

pheno_tbl <- rownames_to_column(pData(msd16s), var = "ID") %>% as_tibble()
pheno_tbl

# A tibble: 992 × 6
   ID     Type    Country   Age AgeFactor Dysentery
   <chr>  <chr>   <fct>   <dbl> <fct>         <dbl>
 1 100259 Case    Gambia     14 [12,18)           1
 2 100262 Control Gambia     24 [24,60)           0
 3 100267 Case    Gambia     17 [12,18)           0
 4 100274 Case    Gambia     36 [24,60)           0
 5 100275 Case    Gambia     29 [24,60)           0
 6 100277 Case    Gambia     29 [24,60)           0
 7 100291 Control Gambia     27 [24,60)           0
 8 100292 Control Gambia     30 [24,60)           0
 9 100293 Case    Gambia     20 [18,24)           1
10 100294 Control Gambia     33 [24,60)           0
# ℹ 982 more rows
…
features <- fData(msd16s)

counts <- MRcounts(msd16s, norm = TRUE)
dim(counts)

[1] 26044   992

The raw or normalized counts matrix can be accessed with the MRcounts function. We get normalized counts. A normalization method avoids biases due to uneven sequencing depth.

otu_id <- rownames(counts)
counts_tbl <- bind_cols(otu_id = otu_id, counts %>% as_tibble())
counts_tbl

# A tibble: 26,044 × 993
   otu_id `100259` `100262` `100267` `100274` `100275` `100277` `100291`
   <chr>     <dbl>    <dbl>    <dbl>    <dbl>    <dbl>    <dbl>    <dbl>
 1 54            0        0        0        0        0        0        0
 2 94            0        0        0        0        0        0        0
 3 113           0        0        0        0        0        0        0
 4 117           0        0        0        0        0        0        0
 5 145           0        0        0        0        0        0        0
 6 202           0        0        0        0        0        0        0
 7 217           0        0        0        0        0        0        0
 8 237           0        0        0        0        0        0        0
 9 245           0        0        0        0        0        0        0
10 248           0        0        0        0        0        0        0
# ℹ 26,034 more rows
# ℹ 985 more variables: `100292` <dbl>, `100293` <dbl>, `100294` <dbl>,
#   `100298` <dbl>, `100303` <dbl>, `100317` <dbl>, `100320` <dbl>,
#   `100322` <dbl>, `100341` <dbl>, `100353` <dbl>, `100356` <dbl>,
#   `100361` <dbl>, `100365` <dbl>, `100395` <dbl>, `100401` <dbl>,
#   `100403` <dbl>, `100437` <dbl>, `100457` <dbl>, `100462` <dbl>,
#   `100470` <dbl>, `100476` <dbl>, `100489` <dbl>, `100491` <dbl>, …
…
3.2.2 Filter data at Genus level

Aggregated counts at genus level

genus_counts = aggTax(msd16s, lvl = "genus", out = "matrix", norm = T)
genus_id <- rownames(genus_counts)
genus_counts_tbl <- bind_cols(genus_id = genus_id, genus_counts %>% as_tibble())
genus_counts_tbl

# A tibble: 164 × 993
   genus_id       `100259` `100262` `100267` `100274` `100275` `100277` `100291`
   <chr>             <dbl>    <dbl>    <dbl>    <dbl>    <dbl>    <dbl>    <dbl>
 1 Abiotrophia         0          0     0         0          0     0        1.80
 2 Acetobacter         0          0     0         0          0     0        0   
 3 Acetonema           0          0     0         0          0     0        0   
 4 Acidaminococc…     10.6        0     0        73.9        0    80.7      0   
 5 Acidithiobaci…      0          0   141.        0          0     0        0   
 6 Acidovorax          0          0     0         0          0     0        0   
 7 Acinetobacter       0          0     0         0          0     2.60     0   
 8 Actinobacillus      0          0     0         0          0     0        0   
 9 Actinomyces        19.4        0     1.79      0          0     0        0   
10 Aeromonas           0          0     0         0          0     0        0   
# ℹ 154 more rows
# ℹ 985 more variables: `100292` <dbl>, `100293` <dbl>, `100294` <dbl>,
#   `100298` <dbl>, `100303` <dbl>, `100317` <dbl>, `100320` <dbl>,
#   `100322` <dbl>, `100341` <dbl>, `100353` <dbl>, `100356` <dbl>,
#   `100361` <dbl>, `100365` <dbl>, `100395` <dbl>, `100401` <dbl>,
#   `100403` <dbl>, `100437` <dbl>, `100457` <dbl>, `100462` <dbl>,
#   `100470` <dbl>, `100476` <dbl>, `100489` <dbl>, `100491` <dbl>, …
…
write.table(genus_tbl_t, file = "genus_tbl_t.txt", 
            row.names = FALSE, col.names = TRUE)

3.2.3 Filter data at Species level

Aggregated counts at genus level

species_counts = aggTax(msd16s, lvl = "species", out = "matrix", norm = T)
species_id <- rownames(species_counts)
species_counts_tbl <- bind_cols(species_id = species_id, species_counts %>% as_tibble())
species_counts_tbl

# A tibble: 754 × 993
   species_id     `100259` `100262` `100267` `100274` `100275` `100277` `100291`
   <chr>             <dbl>    <dbl>    <dbl>    <dbl>    <dbl>    <dbl>    <dbl>
 1 [Leptotrichia…      0          0       0       0          0      0       0   
 2 Abiotrophia d…      0          0       0       0          0      0       1.80
 3 Acetobacter i…      0          0       0       0          0      0       0   
 4 Acetobacter s…      0          0       0       0          0      0       0   
 5 Acetonema lon…      0          0       0       0          0      0       0   
 6 Acidaminococc…     10.6        0       0      73.9        0     80.7     0   
 7 Acidaminococc…      0          0       0       0          0      0       0   
 8 Acidithiobaci…      0          0     141.      0          0      0       0   
 9 Acidithiobaci…      0          0       0       0          0      0       0   
10 Acidovorax ca…      0          0       0       0          0      0       0   
# ℹ 744 more rows
# ℹ 985 more variables: `100292` <dbl>, `100293` <dbl>, `100294` <dbl>,
#   `100298` <dbl>, `100303` <dbl>, `100317` <dbl>, `100320` <dbl>,
#   `100322` <dbl>, `100341` <dbl>, `100353` <dbl>, `100356` <dbl>,
#   `100361` <dbl>, `100365` <dbl>, `100395` <dbl>, `100401` <dbl>,
#   `100403` <dbl>, `100437` <dbl>, `100457` <dbl>, `100462` <dbl>,
#   `100470` <dbl>, `100476` <dbl>, `100489` <dbl>, `100491` <dbl>, …
…
Negative_binomial_species <-
results_species_nb2 %>% 
  filter(p.value < 0.05/101) %>%
  dplyr::select(response_variable, p.value) %>%
  print(n = 20)

# A tibble: 27 × 2
   response_variable                    p.value
   <chr>                                  <dbl>
 1 Escherichia.coli                    1.77e-21
 2 Prevotella.copri                    2.66e-11
 3 Haemophilus.parainfluenzae          5.26e-11
 4 Prevotella.sp..DJF_B112             1.18e-10
 5 Prevotella.sp..DJF_RP53             1.29e- 8
 6 Streptococcus.mitis                 3.19e- 8
 7 Prevotella.sp..oral.clone.BP1.28    3.34e- 8
 8 Enterobacter.cloacae                5.74e- 8
 9 Acinetobacter.sp..SF6               1.26e- 7
10 Streptococcus.pasteurianus          3.27e- 7
11 Streptococcus.sp..oral.clone.ASCC04 3.82e- 7
12 Streptococcus.equinus               8.12e- 7
13 Streptococcus.peroris               2.19e- 6
14 Streptococcus.sp..C101              2.25e- 6
15 Prevotella.sp..BI.42                2.54e- 6
16 Streptococcus.salivarius            4.13e- 6
17 Streptococcus.sp..oral.clone.ASCE09 4.67e- 6
18 Haemophilus.haemolyticus            2.64e- 5
19 Lactobacillus.sp..KLDS.1.0713       5.56e- 5
20 Megasphaera.elsdenii                7.93e- 5
# ℹ 7 more rows
…
